# pT_H   Res_NLL      Res_NLO      NLO          NLO+NLL      switched    
  50.00  2.02862E-05  1.04273E-05  1.98627E-05  2.97217E-05  2.97217E-05
  60.00  1.28908E-05  6.29857E-06  1.43823E-05  2.09745E-05  2.08132E-05
  70.00  8.18592E-06  3.89983E-06  1.07479E-05  1.50339E-05  1.46247E-05
  80.00  5.16869E-06  2.43810E-06  8.22594E-06  1.09565E-05  1.03937E-05
  90.00  3.22159E-06  1.52350E-06  6.40018E-06  8.09827E-06  7.51160E-06
 100.00  1.96108E-06  9.39553E-07  5.05204E-06  6.07356E-06  5.56280E-06
 110.00  1.14557E-06  5.63700E-07  4.03289E-06  4.61475E-06  4.23392E-06
 120.00  6.20740E-07  3.22062E-07  3.25417E-06  3.55285E-06  3.31573E-06
 130.00  2.86760E-07  1.66573E-07  2.64470E-06  2.76488E-06  2.65617E-06
 140.00  7.83498E-08  6.57824E-08  2.16222E-06  2.17479E-06  2.16253E-06
 150.00 -4.75278E-08  5.08859E-09  1.79245E-06  1.73984E-06  1.79245E-06
 160.00 -1.19420E-07 -3.20808E-08  1.48901E-06  1.40167E-06  1.48901E-06
 170.00 -1.56348E-07 -5.27075E-08  1.24604E-06  1.14240E-06  1.24604E-06
 180.00 -1.70982E-07 -6.32943E-08  1.04897E-06  9.41283E-07  1.04897E-06
 190.00 -1.71771E-07 -6.70075E-08  8.86800E-07  7.82036E-07  8.86800E-07
 200.00 -1.64317E-07 -6.57249E-08  7.52326E-07  6.53734E-07  7.52326E-07
 210.00 -1.52301E-07 -6.29450E-08  6.43119E-07  5.53763E-07  6.43119E-07
 220.00 -1.38117E-07 -5.84029E-08  5.51441E-07  4.71727E-07  5.51441E-07
 230.00 -1.23285E-07 -5.27642E-08  4.74451E-07  4.03930E-07  4.74451E-07
 240.00 -1.08739E-07 -4.72652E-08  4.10449E-07  3.48975E-07  4.10449E-07
 250.00 -9.50292E-08 -4.21173E-08  3.56162E-07  3.03250E-07  3.56162E-07
 260.00 -8.24437E-08 -3.68779E-08  3.09814E-07  2.64248E-07  3.09814E-07
 270.00 -7.11060E-08 -3.22254E-08  2.70255E-07  2.31374E-07  2.70255E-07
 280.00 -6.10354E-08 -2.80599E-08  2.36669E-07  2.03693E-07  2.36669E-07
 290.00 -5.21925E-08 -2.42203E-08  2.08486E-07  1.80514E-07  2.08486E-07
 300.00 -4.44713E-08 -2.08161E-08  1.83699E-07  1.60043E-07  1.83699E-07
 310.00 -3.77921E-08 -1.79162E-08  1.62347E-07  1.42471E-07  1.62347E-07
 320.00 -3.20450E-08 -1.53597E-08  1.43930E-07  1.27245E-07  1.43930E-07
 330.00 -2.71326E-08 -1.30660E-08  1.27729E-07  1.13663E-07  1.27729E-07
 340.00 -2.29414E-08 -1.11506E-08  1.13652E-07  1.01862E-07  1.13652E-07
 350.00 -1.94043E-08 -9.48444E-09  1.01473E-07  9.15531E-08  1.01473E-07
 360.00 -1.62930E-08 -8.05104E-09  9.05706E-08  8.23286E-08  9.05706E-08
 370.00 -1.37200E-08 -6.84344E-09  8.10692E-08  7.41926E-08  8.10692E-08
 380.00 -1.18818E-08 -5.79250E-09  7.27801E-08  6.66907E-08  7.27801E-08
 390.00 -9.90075E-09 -4.90385E-09  6.55467E-08  6.05498E-08  6.55467E-08
 400.00 -8.16756E-09 -4.13461E-09  5.89266E-08  5.48936E-08  5.89266E-08
 410.00 -6.86796E-09 -3.50231E-09  5.33178E-08  4.99522E-08  5.33178E-08
 420.00 -5.65692E-09 -2.95425E-09  4.81548E-08  4.54521E-08  4.81548E-08
 430.00 -5.08766E-09 -2.48786E-09  4.36514E-08  4.10516E-08  4.36514E-08
 440.00  1.17559E-09 -2.09825E-09  3.95832E-08  4.28570E-08  3.95832E-08
 450.00 -3.54494E-09 -1.76467E-09  3.59529E-08  3.41726E-08  3.59529E-08
 460.00 -2.52267E-09 -1.48718E-09  3.26881E-08  3.16526E-08  3.26881E-08
 470.00 -2.76732E-09 -1.24900E-09  2.97591E-08  2.82408E-08  2.97591E-08
 480.00  2.24090E-10 -1.05154E-09  2.71323E-08  2.84079E-08  2.71323E-08
 490.00 -2.07066E-09 -8.82896E-10  2.47916E-08  2.36038E-08  2.47916E-08
 500.00 -1.92035E-09 -7.42445E-10  2.26359E-08  2.14580E-08  2.26359E-08
 510.00 -1.15091E-09 -6.22537E-10  2.06987E-08  2.01704E-08  2.06987E-08
 520.00 -1.80042E-09 -5.22218E-10  1.89968E-08  1.77186E-08  1.89968E-08
 530.00 -2.10663E-09 -4.39365E-10  1.74301E-08  1.57628E-08  1.74301E-08
 540.00 -3.16000E-09 -3.68547E-10  1.60115E-08  1.32200E-08  1.60115E-08
 550.00  1.57297E-10 -3.09017E-10  1.47208E-08  1.51871E-08  1.47208E-08
 560.00 -2.49885E-09 -2.59388E-10  1.35440E-08  1.13045E-08  1.35440E-08
 570.00 -2.30745E-09 -2.17357E-10  1.24686E-08  1.03785E-08  1.24686E-08
 580.00 -2.48713E-09 -1.82174E-10  1.14958E-08  9.19083E-09  1.14958E-08
 590.00 -3.03159E-09 -1.52621E-10  1.06121E-08  7.73316E-09  1.06121E-08
 600.00 -5.00146E-11 -1.27875E-10  9.79939E-09  9.87725E-09  9.79939E-09
 610.00 -3.37556E-09 -1.07213E-10  9.06401E-09  5.79567E-09  9.06401E-09
 620.00 -2.25652E-10 -8.97787E-11  8.38723E-09  8.25135E-09  8.38723E-09
 630.00 -3.52814E-09 -7.52282E-11  7.76393E-09  4.31102E-09  7.76393E-09
 640.00 -3.00479E-09 -6.29729E-11  7.19249E-09  4.25067E-09  7.19249E-09
 650.00 -4.55665E-09 -5.26528E-11  6.67066E-09  2.16666E-09  6.67066E-09
 660.00 -3.93131E-09 -4.41299E-11  6.19239E-09  2.30521E-09  6.19239E-09
 670.00 -1.18105E-09 -3.69425E-11  5.75772E-09  4.61361E-09  5.75772E-09
 680.00 -4.41034E-09 -3.09256E-11  5.34549E-09  9.66075E-10  5.34549E-09
 690.00 -4.51648E-09 -2.58282E-11  4.96926E-09  4.78611E-10  4.96926E-09
 700.00 -4.57831E-09 -2.16287E-11  4.62354E-09  6.68585E-11  4.62354E-09
 710.00  1.62819E-09 -1.81188E-11  4.31144E-09  5.95775E-09  4.31144E-09
 720.00  1.48412E-08 -1.51312E-11  4.01257E-09  1.88689E-08  4.01257E-09
 730.00 -2.33981E-10 -1.26503E-11  3.74556E-09  3.52423E-09  3.74556E-09
 740.00 -2.61758E-09 -1.05860E-11  3.49384E-09  8.86847E-10  3.49384E-09
 750.00  6.67453E-09 -8.86008E-12  3.26072E-09  9.94411E-09  3.26072E-09
 760.00 -1.49727E-09 -7.41223E-12  3.03826E-09  1.54841E-09  3.03826E-09
 770.00  3.17502E-08 -6.18893E-12  2.84404E-09  3.46004E-08  2.84404E-09
 780.00 -4.37062E-09 -5.18723E-12  2.65913E-09 -1.70630E-09  2.65913E-09
 790.00 -4.18882E-09 -4.33509E-12  2.49207E-09 -1.69241E-09  2.49207E-09
 800.00  6.90256E-09 -3.62207E-12  2.32973E-09  9.23591E-09  2.32973E-09
# integral NLO+NLL  (sum*stepsize): 1.15255E-03
# integral switched (sum*stepsize): 1.13476E-03
